Strawberry-Market
…
supply_all <- bind_rows(old, new_clean) %>%
  arrange(Year, State)

summary(supply_all$Year)

   Min. 1st Qu.  Median    Mean 3rd Qu.    Max. 
   1998    2003    2009    2009    2014    2024 

distinct(supply_all, Year) %>% arrange(Year)

# A tibble: 27 × 1
    Year
   <dbl>
 1  1998
 2  1999
 3  2000
 4  2001
 5  2002
 6  2003
 7  2004
 8  2005
 9  2006
10  2007
# ℹ 17 more rows
…
